<svg width="32" height="32" viewBox="0 0 32 32" fill="none" xmlns="http://www.w3.org/2000/svg">
<path d="M20 16L26.6666 10.6667L20 5.33337V9.33204H2.66663V11.9987H20V16ZM29.3333 20H12V16L5.33329 21.3334L12 26.6667V22.6667H29.3333V20Z" fill="white"/>
</svg>
